[
    {
      "nrotarjeta": "4357315294670800",
      "codseguridad": "581",
      "nrocomercio": "7",
      "monto": "4284"
    },
    {
      "nrotarjeta": "4002595446803388",
      "codseguridad": "664",
      "nrocomercio": "11",
      "monto": "14558"
    },
    {
      "nrotarjeta": "4357314354229581",
      "codseguridad": "506",
      "nrocomercio": "19",
      "monto": "830"
    },
    {
      "nrotarjeta": "4357318448383965",
      "codseguridad": "452",
      "nrocomercio": "13",
      "monto": "3920"
    },
    {
      "nrotarjeta": "4357316779169904",
      "codseguridad": "180",
      "nrocomercio": "4",
      "monto": "4603"
    },
    {
      "nrotarjeta": "4357315570417157",
      "codseguridad": "217",
      "nrocomercio": "10",
      "monto": "14010"
    },
    {
      "nrotarjeta": "4002598708388742",
      "codseguridad": "348",
      "nrocomercio": "7",
      "monto": "17670"
    },
    {
      "nrotarjeta": "4002592463378402",
      "codseguridad": "278",
      "nrocomercio": "18",
      "monto": "4540"
    },
    {
      "nrotarjeta": "4357316779169904",
      "codseguridad": "181",
      "nrocomercio": "5",
      "monto": "1270"
    },
    {
      "nrotarjeta": "4357315220356144",
      "codseguridad": "313",
      "nrocomercio": "16",
      "monto": "14922"
    },
    {
      "nrotarjeta": "4002598169160028",
      "codseguridad": "830",
      "nrocomercio": "8",
      "monto": "2407"
    },
    {
      "nrotarjeta": "4002598169160028",
      "codseguridad": "830",
      "nrocomercio": "9",
      "monto": "633"
    },
    {
      "nrotarjeta": "4002592463378402",
      "codseguridad": "278",
      "nrocomercio": "17",
      "monto": "19969"
    },
    {
      "nrotarjeta": "4357310922201904",
      "codseguridad": "575",
      "nrocomercio": "2",
      "monto": "5000"
    },
    {
      "nrotarjeta": "4357317291456993",
      "codseguridad": "781",
      "nrocomercio": "13",
      "monto": "750"
    },
    {
      "nrotarjeta": "4002591876172261",
      "codseguridad": "591",
      "nrocomercio": "15",
      "monto": "15733"
    },
    {
      "nrotarjeta": "4002592533370843",
      "codseguridad": "231",
      "nrocomercio": "5",
      "monto": "18217"
    },
    {
      "nrotarjeta": "4002598708388742",
      "codseguridad": "341",
      "nrocomercio": "10",
      "monto": "6864"
    },
    {
      "nrotarjeta": "4357315220356144",
      "codseguridad": "314",
      "nrocomercio": "18",
      "monto": "695"
    },
    {
      "nrotarjeta": "4357310922201904",
      "codseguridad": "572",
      "nrocomercio": "3",
      "monto": "1000"
    },
    {
      "nrotarjeta": "4357315220356144",
      "codseguridad": "314",
      "nrocomercio": "20",
      "monto": "4076"
    },
    {
      "nrotarjeta": "4357315570417157",
      "codseguridad": "217",
      "nrocomercio": "9",
      "monto": "11000"
    },
    {
      "nrotarjeta": "4357316779169904",
      "codseguridad": "180",
      "nrocomercio": "1",
      "monto": "11843"
    },
    {
      "nrotarjeta": "4357319608183815",
      "codseguridad": "260",
      "nrocomercio": "14",
      "monto": "6388"
    },
    {
      "nrotarjeta": "4002591876172261",
      "codseguridad": "591",
      "nrocomercio": "11",
      "monto": "5670"
    },
    {
      "nrotarjeta": "4357315294670800",
      "codseguridad": "582",
      "nrocomercio": "6",
      "monto": "13302"
    },
    {
      "nrotarjeta": "4002592463378402",
      "codseguridad": "178",
      "nrocomercio": "19",
      "monto": "7796"
    },
    {
      "nrotarjeta": "4002592166614293",
      "codseguridad": "875",
      "nrocomercio": "1",
      "monto": "8976"
    },
    {
      "nrotarjeta": "4002591876172261",
      "codseguridad": "591",
      "nrocomercio": "14",
      "monto": "9613"
    },
    {
      "nrotarjeta": "4357315220356144",
      "codseguridad": "314",
      "nrocomercio": "17",
      "monto": "11650"
    },
    {
      "nrotarjeta": "4002597287620558",
      "codseguridad": "960",
      "nrocomercio": "18",
      "monto": "10806"
    },
    {
      "nrotarjeta": "4002595446803388",
      "codseguridad": "664",
      "nrocomercio": "14",
      "monto": "7345"
    },
    {
      "nrotarjeta": "4357312859459315",
      "codseguridad": "963",
      "nrocomercio": "7",
      "monto": "5616"
    },
    {
      "nrotarjeta": "4357317291456993",
      "codseguridad": "781",
      "nrocomercio": "12",
      "monto": "25000"
    },
    {
      "nrotarjeta": "4357317291456993",
      "codseguridad": "781",
      "nrocomercio": "15",
      "monto": "9963"
    },
    {
      "nrotarjeta": "4002598037206946",
      "codseguridad": "470",
      "nrocomercio": "7",
      "monto": "7946"
    },
    {
      "nrotarjeta": "4002597231855623",
      "codseguridad": "582",
      "nrocomercio": "2",
      "monto": "8659"
    },
    {
      "nrotarjeta": "4002592166614293",
      "codseguridad": "875",
      "nrocomercio": "2",
      "monto": "2865"
    },
    {
      "nrotarjeta": "4002598037206946",
      "codseguridad": "470",
      "nrocomercio": "9",
      "monto": "10214"
    },
    {
      "nrotarjeta": "4357310922201904",
      "codseguridad": "575",
      "nrocomercio": "5",
      "monto": "15000"
    },
    {
      "nrotarjeta": "4357314354229581",
      "codseguridad": "506",
      "nrocomercio": "17",
      "monto": "2469"
    },
    {
      "nrotarjeta": "4357314354229581",
      "codseguridad": "505",
      "nrocomercio": "20",
      "monto": "18691"
    },
    {
      "nrotarjeta": "4002597231855623",
      "codseguridad": "582",
      "nrocomercio": "3",
      "monto": "15887"
    },
    {
      "nrotarjeta": "4357315220356144",
      "codseguridad": "314",
      "nrocomercio": "19",
      "monto": "19252"
    },
    {
      "nrotarjeta": "4002597287620558",
      "codseguridad": "960",
      "nrocomercio": "16",
      "monto": "8880"
    },
    {
      "nrotarjeta": "4002592533370843",
      "codseguridad": "431",
      "nrocomercio": "1",
      "monto": "13815"
    },
    {
      "nrotarjeta": "4357317291456993",
      "codseguridad": "781",
      "nrocomercio": "11",
      "monto": "2500"
    },
    {
      "nrotarjeta": "4002599360686951",
      "codseguridad": "519",
      "nrocomercio": "19",
      "monto": "9934"
    },
    {
      "nrotarjeta": "4357318448383965",
      "codseguridad": "452",
      "nrocomercio": "11",
      "monto": "17879"
    },
    {
      "nrotarjeta": "4002597231855623",
      "codseguridad": "581",
      "nrocomercio": "4",
      "monto": "19935"
    },
    {
      "nrotarjeta": "4002599360686951",
      "codseguridad": "518",
      "nrocomercio": "20",
      "monto": "17541"
    },
    {
      "nrotarjeta": "4002591876172261",
      "codseguridad": "581",
      "nrocomercio": "13",
      "monto": "1106"
    },
    {
      "nrotarjeta": "4357314354229581",
      "codseguridad": "506",
      "nrocomercio": "16",
      "monto": "4863"
    },
    {
      "nrotarjeta": "4002598169160028",
      "codseguridad": "830",
      "nrocomercio": "7",
      "monto": "15458"
    },
    {
      "nrotarjeta": "4357315294670800",
      "codseguridad": "581",
      "nrocomercio": "8",
      "monto": "6677"
    },
    {
      "nrotarjeta": "4357312859459315",
      "codseguridad": "964",
      "nrocomercio": "9",
      "monto": "17491"
    },
    {
      "nrotarjeta": "4357310922201904",
      "codseguridad": "575",
      "nrocomercio": "1",
      "monto": "7500"
    },
    {
      "nrotarjeta": "4002592463378402",
      "codseguridad": "278",
      "nrocomercio": "16",
      "monto": "4500"
    },
    {
      "nrotarjeta": "4357319608183815",
      "codseguridad": "260",
      "nrocomercio": "11",
      "monto": "1843"
    },
    {
      "nrotarjeta": "4002598169160028",
      "codseguridad": "830",
      "nrocomercio": "6",
      "monto": "13925"
    },
    {
      "nrotarjeta": "4002598708388742",
      "codseguridad": "341",
      "nrocomercio": "9",
      "monto": "15031"
    },
    {
      "nrotarjeta": "4002592166614293",
      "codseguridad": "865",
      "nrocomercio": "5",
      "monto": "19152"
    },
    {
      "nrotarjeta": "4002592463378402",
      "codseguridad": "278",
      "nrocomercio": "20",
      "monto": "4902"
    },
    {
      "nrotarjeta": "4002597231855623",
      "codseguridad": "582",
      "nrocomercio": "1",
      "monto": "8367"
    },
    {
      "nrotarjeta": "4002592533370843",
      "codseguridad": "431",
      "nrocomercio": "2",
      "monto": "5526"
    },
    {
      "nrotarjeta": "4357312859459315",
      "codseguridad": "964",
      "nrocomercio": "6",
      "monto": "4580"
    },
    {
      "nrotarjeta": "4002592533370843",
      "codseguridad": "431",
      "nrocomercio": "4",
      "monto": "5279"
    },
    {
      "nrotarjeta": "4002598037206946",
      "codseguridad": "470",
      "nrocomercio": "10",
      "monto": "15261"
    },
    {
      "nrotarjeta": "4357318448383965",
      "codseguridad": "454",
      "nrocomercio": "15",
      "monto": "12195"
    },
    {
      "nrotarjeta": "4357317291456993",
      "codseguridad": "780",
      "nrocomercio": "14",
      "monto": "4900"
    },
    {
      "nrotarjeta": "4357312859459315",
      "codseguridad": "964",
      "nrocomercio": "8",
      "monto": "10950"
    },
    {
      "nrotarjeta": "4002599360686951",
      "codseguridad": "518",
      "nrocomercio": "16",
      "monto": "19883"
    },
    {
      "nrotarjeta": "4357315570417157",
      "codseguridad": "217",
      "nrocomercio": "8",
      "monto": "500"
    },
    {
      "nrotarjeta": "4002592166614293",
      "codseguridad": "875",
      "nrocomercio": "4",
      "monto": "7736"
    },
    {
      "nrotarjeta": "4357319608183815",
      "codseguridad": "260",
      "nrocomercio": "13",
      "monto": "8366"
    },
    {
      "nrotarjeta": "4002599360686951",
      "codseguridad": "518",
      "nrocomercio": "18",
      "monto": "5673"
    },
    {
      "nrotarjeta": "4357315294670800",
      "codseguridad": "581",
      "nrocomercio": "9",
      "monto": "7088"
    },
    {
      "nrotarjeta": "4357315570417157",
      "codseguridad": "217",
      "nrocomercio": "6",
      "monto": "2500"
    },
    {
      "nrotarjeta": "4002591876172261",
      "codseguridad": "591",
      "nrocomercio": "12",
      "monto": "16715"
    },
    {
      "nrotarjeta": "4357315294670800",
      "codseguridad": "581",
      "nrocomercio": "10",
      "monto": "17487"
    },
    {
      "nrotarjeta": "4357310922201904",
      "codseguridad": "575",
      "nrocomercio": "4",
      "monto": "8000"
    },
    {
      "nrotarjeta": "4002599360686951",
      "codseguridad": "518",
      "nrocomercio": "17",
      "monto": "5006"
    },
    {
      "nrotarjeta": "4357318858869933",
      "codseguridad": "994",
      "nrocomercio": "4",
      "monto": "18057"
    },
    {
      "nrotarjeta": "4002595446803388",
      "codseguridad": "665",
      "nrocomercio": "12",
      "monto": "17665"
    },
    {
      "nrotarjeta": "4357318448383965",
      "codseguridad": "452",
      "nrocomercio": "14",
      "monto": "17768"
    },
    {
      "nrotarjeta": "4002597287620558",
      "codseguridad": "960",
      "nrocomercio": "19",
      "monto": "16426"
    },
    {
      "nrotarjeta": "4002598708388742",
      "codseguridad": "341",
      "nrocomercio": "6",
      "monto": "754"
    },
    {
      "nrotarjeta": "4357319608183815",
      "codseguridad": "262",
      "nrocomercio": "12",
      "monto": "15244"
    },
    {
      "nrotarjeta": "4357319608183815",
      "codseguridad": "260",
      "nrocomercio": "15",
      "monto": "7395"
    },
    {
      "nrotarjeta": "4357318858869933",
      "codseguridad": "993",
      "nrocomercio": "2",
      "monto": "7648"
    },
    {
      "nrotarjeta": "4357316779169904",
      "codseguridad": "180",
      "nrocomercio": "2",
      "monto": "17755"
    },
    {
      "nrotarjeta": "4357318858869933",
      "codseguridad": "993",
      "nrocomercio": "5",
      "monto": "12090"
    },
    {
      "nrotarjeta": "4002595446803388",
      "codseguridad": "664",
      "nrocomercio": "15",
      "monto": "15310"
    },
    {
      "nrotarjeta": "4002598708388742",
      "codseguridad": "341",
      "nrocomercio": "8",
      "monto": "5296"
    },
    {
      "nrotarjeta": "4002592166614293",
      "codseguridad": "875",
      "nrocomercio": "3",
      "monto": "10978"
    },
    {
      "nrotarjeta": "4002597231855623",
      "codseguridad": "582",
      "nrocomercio": "5",
      "monto": "5252"
    },
    {
      "nrotarjeta": "4002597287620558",
      "codseguridad": "960",
      "nrocomercio": "17",
      "monto": "10778"
    },
    {
      "nrotarjeta": "4002597287620558",
      "codseguridad": "965",
      "nrocomercio": "20",
      "monto": "13888"
    },
    {
      "nrotarjeta": "4357316779169904",
      "codseguridad": "180",
      "nrocomercio": "3",
      "monto": "15353"
    },
    {
      "nrotarjeta": "4357314354229581",
      "codseguridad": "506",
      "nrocomercio": "18",
      "monto": "3086"
    },
    {
      "nrotarjeta": "4002592533370843",
      "codseguridad": "431",
      "nrocomercio": "3",
      "monto": "753"
    },
    {
      "nrotarjeta": "4357318448383965",
      "codseguridad": "452",
      "nrocomercio": "12",
      "monto": "1212"
    },
    {
      "nrotarjeta": "4357315570417157",
      "codseguridad": "216",
      "nrocomercio": "7",
      "monto": "4700"
    },
    {
      "nrotarjeta": "4357318858869933",
      "codseguridad": "993",
      "nrocomercio": "1",
      "monto": "4461"
    },
    {
      "nrotarjeta": "4002598169160028",
      "codseguridad": "837",
      "nrocomercio": "10",
      "monto": "4165"
    },
    {
      "nrotarjeta": "4002598037206946",
      "codseguridad": "470",
      "nrocomercio": "6",
      "monto": "9024"
    },
    {
      "nrotarjeta": "4002598037206946",
      "codseguridad": "478",
      "nrocomercio": "8",
      "monto": "13086"
    },
    {
      "nrotarjeta": "4002595446803388",
      "codseguridad": "664",
      "nrocomercio": "13",
      "monto": "12717"
    },
    {
      "nrotarjeta": "4357312859459315",
      "codseguridad": "964",
      "nrocomercio": "10",
      "monto": "18797"
    },
    {
      "nrotarjeta": "4357318858869933",
      "codseguridad": "993",
      "nrocomercio": "3",
      "monto": "14880"
    }
  ]